^D:\PROGRAMMING\REPOSITORIES\ASTAR-ASSIGNMENT\ASTAR-VS2010-CONSOLE\ASTAR-VS2010-CONSOLE\BOARD.CPP
/c /Zi /nologo /W3 /WX- /O2 /Oi /Oy- /GL /D _MBCS /Gm- /EHsc /MD /GS /Gy /fp:precise /Zc:wchar_t /Zc:forScope /Fo"Release\\" /Fd"Release\vc100.pdb" /Gd /TP /analyze- /errorReport:prompt D:\PROGRAMMING\REPOSITORIES\ASTAR-ASSIGNMENT\ASTAR-VS2010-CONSOLE\ASTAR-VS2010-CONSOLE\BOARD.CPP
^D:\PROGRAMMING\REPOSITORIES\ASTAR-ASSIGNMENT\ASTAR-VS2010-CONSOLE\ASTAR-VS2010-CONSOLE\FILES.CPP
/c /Zi /nologo /W3 /WX- /O2 /Oi /Oy- /GL /D _MBCS /Gm- /EHsc /MD /GS /Gy /fp:precise /Zc:wchar_t /Zc:forScope /Fo"Release\\" /Fd"Release\vc100.pdb" /Gd /TP /analyze- /errorReport:prompt D:\PROGRAMMING\REPOSITORIES\ASTAR-ASSIGNMENT\ASTAR-VS2010-CONSOLE\ASTAR-VS2010-CONSOLE\FILES.CPP
^D:\PROGRAMMING\REPOSITORIES\ASTAR-ASSIGNMENT\ASTAR-VS2010-CONSOLE\ASTAR-VS2010-CONSOLE\MAIN.CPP
/c /Zi /nologo /W3 /WX- /O2 /Oi /Oy- /GL /D _MBCS /Gm- /EHsc /MD /GS /Gy /fp:precise /Zc:wchar_t /Zc:forScope /Fo"Release\\" /Fd"Release\vc100.pdb" /Gd /TP /analyze- /errorReport:prompt D:\PROGRAMMING\REPOSITORIES\ASTAR-ASSIGNMENT\ASTAR-VS2010-CONSOLE\ASTAR-VS2010-CONSOLE\MAIN.CPP
^D:\PROGRAMMING\REPOSITORIES\ASTAR-ASSIGNMENT\ASTAR-VS2010-CONSOLE\ASTAR-VS2010-CONSOLE\NODE.CPP
/c /Zi /nologo /W3 /WX- /O2 /Oi /Oy- /GL /D _MBCS /Gm- /EHsc /MD /GS /Gy /fp:precise /Zc:wchar_t /Zc:forScope /Fo"Release\\" /Fd"Release\vc100.pdb" /Gd /TP /analyze- /errorReport:prompt D:\PROGRAMMING\REPOSITORIES\ASTAR-ASSIGNMENT\ASTAR-VS2010-CONSOLE\ASTAR-VS2010-CONSOLE\NODE.CPP
^D:\PROGRAMMING\REPOSITORIES\ASTAR-ASSIGNMENT\ASTAR-VS2010-CONSOLE\ASTAR-VS2010-CONSOLE\NODELIST.CPP
/c /Zi /nologo /W3 /WX- /O2 /Oi /Oy- /GL /D _MBCS /Gm- /EHsc /MD /GS /Gy /fp:precise /Zc:wchar_t /Zc:forScope /Fo"Release\\" /Fd"Release\vc100.pdb" /Gd /TP /analyze- /errorReport:prompt D:\PROGRAMMING\REPOSITORIES\ASTAR-ASSIGNMENT\ASTAR-VS2010-CONSOLE\ASTAR-VS2010-CONSOLE\NODELIST.CPP
