^D:\PROGRAMMING\REPOSITORIES\ASTAR-ASSIGNMENT\ASTAR-VS2010-CONSOLE\ASTAR-VS2010-CONSOLE\RELEASE\BOARD.OBJ|D:\PROGRAMMING\REPOSITORIES\ASTAR-ASSIGNMENT\ASTAR-VS2010-CONSOLE\ASTAR-VS2010-CONSOLE\RELEASE\FILES.OBJ|D:\PROGRAMMING\REPOSITORIES\ASTAR-ASSIGNMENT\ASTAR-VS2010-CONSOLE\ASTAR-VS2010-CONSOLE\RELEASE\MAIN.OBJ|D:\PROGRAMMING\REPOSITORIES\ASTAR-ASSIGNMENT\ASTAR-VS2010-CONSOLE\ASTAR-VS2010-CONSOLE\RELEASE\NODE.OBJ|D:\PROGRAMMING\REPOSITORIES\ASTAR-ASSIGNMENT\ASTAR-VS2010-CONSOLE\ASTAR-VS2010-CONSOLE\RELEASE\NODELIST.OBJ
C:\PROGRAM FILES (X86)\MICROSOFT SDKS\WINDOWS\V7.0A\LIB\KERNEL32.LIB
C:\PROGRAM FILES (X86)\MICROSOFT SDKS\WINDOWS\V7.0A\LIB\USER32.LIB
C:\PROGRAM FILES (X86)\MICROSOFT SDKS\WINDOWS\V7.0A\LIB\GDI32.LIB
C:\PROGRAM FILES (X86)\MICROSOFT SDKS\WINDOWS\V7.0A\LIB\WINSPOOL.LIB
C:\PROGRAM FILES (X86)\MICROSOFT SDKS\WINDOWS\V7.0A\LIB\COMDLG32.LIB
C:\PROGRAM FILES (X86)\MICROSOFT SDKS\WINDOWS\V7.0A\LIB\ADVAPI32.LIB
C:\PROGRAM FILES (X86)\MICROSOFT SDKS\WINDOWS\V7.0A\LIB\SHELL32.LIB
C:\PROGRAM FILES (X86)\MICROSOFT SDKS\WINDOWS\V7.0A\LIB\OLE32.LIB
C:\PROGRAM FILES (X86)\MICROSOFT SDKS\WINDOWS\V7.0A\LIB\OLEAUT32.LIB
C:\PROGRAM FILES (X86)\MICROSOFT SDKS\WINDOWS\V7.0A\LIB\UUID.LIB
C:\PROGRAM FILES (X86)\MICROSOFT SDKS\WINDOWS\V7.0A\LIB\ODBC32.LIB
C:\PROGRAM FILES (X86)\MICROSOFT SDKS\WINDOWS\V7.0A\LIB\ODBCCP32.LIB
D:\PROGRAMMING\REPOSITORIES\ASTAR-ASSIGNMENT\ASTAR-VS2010-CONSOLE\ASTAR-VS2010-CONSOLE\RELEASE\BOARD.OBJ
D:\PROGRAMMING\REPOSITORIES\ASTAR-ASSIGNMENT\ASTAR-VS2010-CONSOLE\ASTAR-VS2010-CONSOLE\RELEASE\FILES.OBJ
D:\PROGRAMMING\REPOSITORIES\ASTAR-ASSIGNMENT\ASTAR-VS2010-CONSOLE\ASTAR-VS2010-CONSOLE\RELEASE\MAIN.OBJ
D:\PROGRAMMING\REPOSITORIES\ASTAR-ASSIGNMENT\ASTAR-VS2010-CONSOLE\ASTAR-VS2010-CONSOLE\RELEASE\NODE.OBJ
D:\PROGRAMMING\REPOSITORIES\ASTAR-ASSIGNMENT\ASTAR-VS2010-CONSOLE\ASTAR-VS2010-CONSOLE\RELEASE\NODELIST.OBJ
C:\WINDOWS\GLOBALIZATION\SORTING\SORTDEFAULT.NLS
C:\PROGRAM FILES (X86)\MICROSOFT VISUAL STUDIO 10.0\VC\BIN\C2.DLL
C:\PROGRAM FILES (X86)\MICROSOFT VISUAL STUDIO 10.0\VC\LIB\MSVCPRT.LIB
C:\PROGRAM FILES (X86)\MICROSOFT VISUAL STUDIO 10.0\VC\LIB\MSVCRT.LIB
C:\PROGRAM FILES (X86)\MICROSOFT VISUAL STUDIO 10.0\VC\LIB\OLDNAMES.LIB
C:\PROGRAM FILES (X86)\MICROSOFT VISUAL STUDIO 10.0\VC\BIN\1033\LINKUI.DLL
C:\PROGRAM FILES (X86)\MICROSOFT VISUAL STUDIO 10.0\VC\BIN\1033\CLUI.DLL
C:\WINDOWS\SYSTEM32\TZRES.DLL
